Clase 3. Visualización de datos
…
2. Importar datos.

Trabajaremos nuevamente con la base de datos
Tabla_camelida.xlsx. Puedes encontrarla en el repositorio
del curso o descargarla directamente haciendo click aquí.

camelidos <- read_excel("~/Desktop/work/0_Cuantitativa_2026/ANT305Q-2026/Clases/Clase2/Tabla camelida.xlsx")
camelidos

## # A tibble: 33 × 3
##    Taxon Largo Ancho
##    <chr> <dbl> <dbl>
##  1 LLAMA  80.3  35.4
##  2 LLAMA  71.6  21.2
##  3 LLAMA  70.9  22.0
##  4 LLAMA  70.6  22.3
##  5 LLAMA  69.1  22.7
##  6 LLAMA  68.7  20.8
##  7 LLAMA  67.8  20  
##  8 LLAMA  66.6  21  
##  9 LLAMA  65.9  20.3
## 10 LLAMA  65.8  21.2
## # ℹ 23 more rows
…
