Clase 6. Rangos de error y niveles de confianza.
…
Usted trabaja con una muestra aleatoria de vasos cerámicos. El alto
de cuello de los vasos cerámicos se encuentra en el archivo
Alto_cuello_ceramica.xlsx. Calcule el alto de cuello (cm)
medio (promedio) y desviación estándar de la muestra. Además,
proporcione un rango de error para este estimativo al nivel de confianza
del 95%.

2.1. Importar y explorar los datos.

alto_cuello <- read_excel("~/Desktop/work/0_Cuantitativa_2026/ANT305Q-2026/Clases/Clase6/Alto_cuello_ceramica.xlsx")
alto_cuello

## # A tibble: 78 × 2
##    Sitio  Alto
##    <chr> <dbl>
##  1 Molle   3.7
##  2 Molle   4.1
##  3 Molle   3.1
##  4 Molle   3.9
##  5 Molle   1.9
##  6 Molle   4  
##  7 Molle   7.2
##  8 Molle   5.6
##  9 Molle   2.9
## 10 Molle   6  
## # ℹ 68 more rows
…
4. Ejercicio 3: Intervalo de confianza con corrector de
poblaciones finitas.

Usted selecciona una muestra aleatoria de 33 instrumentos de hueso de
un total de 60 instrumentos de hueso excavados en un sitio costero.
¿Cuál sería el ancho medio de los 60 instrumentos en base a la muestra
de 33, incluyendo rango de error a un nivel de confianza del 95%?

4.1. Importar y explorar los datos.

ancho_hueso <- read_excel("~/Desktop/work/0_Cuantitativa_2026/ANT305Q-2026/Clases/Clase6/Ancho_instrumento_hueso.xlsx")
ancho_hueso

## # A tibble: 33 × 2
##    Sitio Ancho
##    <chr> <dbl>
##  1 Costa  17  
##  2 Costa  17  
##  3 Costa  18  
##  4 Costa  18.8
##  5 Costa  18.8
##  6 Costa  18.9
##  7 Costa  19.1
##  8 Costa  19.3
##  9 Costa  19.8
## 10 Costa  19.9
## # ℹ 23 more rows
…
