Clase 9. Tests no paramétricos.
…
3. Ejercicio 1: Dieta de camélidos en Tarapacá 40 y Caleta
Vítor.

Evaluamos si existen diferencias en los isótopos de nitrógeno (δ15N)
entre camélidos del sitio interior Tarapacá 40 (Tr40) y el sitio costero
Caleta Vítor (CV).

3.1. Importar y explorar los datos.

camelidos_sitios <- read_excel("~/Desktop/work/0_Cuantitativa_2026/ANT305Q-2026/Clases/Clase9/Comparacion_Tr40_CV.xlsx")
camelidos_sitios

## # A tibble: 49 × 2
##    Sitio  d15N
##    <chr> <dbl>
##  1 Tr40    4.3
##  2 Tr40    5.2
##  3 Tr40    5.9
##  4 Tr40    6.2
##  5 Tr40    7.1
##  6 Tr40    7.1
##  7 Tr40    7.2
##  8 Tr40    7.4
##  9 Tr40    7.4
## 10 Tr40    7.7
## # ℹ 39 more rows
…
¿Podemos rechazar la hipótesis nula? ¿Existen diferencias
significativas en la dieta de los camélidos entre ambos sitios? ¿A qué
podría deberse esto?

4. Ejercicio 2: Largo de maíces en Tarapacá.

Evaluamos si existen diferencias en el largo de los maíces entre los
sitios TR40 y TR49.

4.1. Importar y explorar los datos.

maices <- read_excel("~/Desktop/work/0_Cuantitativa_2026/ANT305Q-2026/Clases/Clase9/Largo_maices.xlsx")
maices

## # A tibble: 111 × 2
##    Sitio Largo
##    <chr> <dbl>
##  1 TR49    444
##  2 TR49    440
##  3 TR49    435
##  4 TR49    425
##  5 TR49    420
##  6 TR49    417
##  7 TR49    416
##  8 TR49    415
##  9 TR49    414
## 10 TR49    413
## # ℹ 101 more rows
…
5. Ejercicio 3: Dieta humana en la costa en tres
períodos.

Evaluamos si existen diferencias en los isótopos de nitrógeno (δ15N)
en humanos costeros a lo largo de tres períodos: Formativo, Intermedio
Tardío y Tardío.

5.1. Importar y explorar los datos.

dieta_costa <- read_excel("~/Desktop/work/0_Cuantitativa_2026/ANT305Q-2026/Clases/Clase9/Dieta_humanos_costa.xlsx")
dieta_costa

## # A tibble: 120 × 4
##    Ubicacion Periodo    d13C  d15N
##    <chr>     <chr>     <dbl> <dbl>
##  1 Coast     Formativo -10.5  29.6
##  2 Coast     Formativo -11.4  22.4
##  3 Coast     Formativo -12.1  18.3
##  4 Coast     Formativo -11.4  23.8
##  5 Coast     Formativo -12    23.1
##  6 Coast     Formativo -14.2  25.8
##  7 Coast     Formativo -12.5  26.6
##  8 Coast     Formativo -12.3  26.7
##  9 Coast     Formativo -12.8  27  
## 10 Coast     Formativo -13.5  24.8
## # ℹ 110 more rows
…
¿Podemos rechazar la hipótesis nula? ¿Existen diferencias
significativas entre los períodos? ¿Qué nos indica esto sobre las dietas
costeras a lo largo del tiempo?

6. Ejercicio 4: Largo de aleta en Palmer
Penguins.

Evaluamos si existen diferencias en el largo de aleta entre las tres
especies de pingüinos.

6.1. Explorar los datos.

penguins

## # A tibble: 344 × 8
##    species island    bill_length_mm bill_depth_mm flipper_length_mm body_mass_g
##    <fct>   <fct>              <dbl>         <dbl>             <int>       <int>
##  1 Adelie  Torgersen           39.1          18.7               181        3750
##  2 Adelie  Torgersen           39.5          17.4               186        3800
##  3 Adelie  Torgersen           40.3          18                 195        3250
##  4 Adelie  Torgersen           NA            NA                  NA          NA
##  5 Adelie  Torgersen           36.7          19.3               193        3450
##  6 Adelie  Torgersen           39.3          20.6               190        3650
##  7 Adelie  Torgersen           38.9          17.8               181        3625
##  8 Adelie  Torgersen           39.2          19.6               195        4675
##  9 Adelie  Torgersen           34.1          18.1               193        3475
## 10 Adelie  Torgersen           42            20.2               190        4250
## # ℹ 334 more rows
## # ℹ 2 more variables: sex <fct>, year <int>
…
7. Trabajo en Clases 9.

Recuerde que siempre debe explorar sus datos con un boxplot antes de
realizar cualquier análisis, y evaluar la normalidad con Shapiro-Wilk
antes de elegir el test.

Para esta actividad utilizaremos las bases de datos
Diametro_vertebra_pescado.xlsx,
Triangulo.xlsx, y las bases de datos
palmerpenguins e iris incluidas en R.

vertebras <- read_excel("~/Desktop/work/0_Cuantitativa_2026/ANT305Q-2026/Clases/Clase9/Diametro_vertebra_pescado.xlsx")
vertebras

## # A tibble: 40 × 2
##    Sitio       Diametro
##    <chr>          <dbl>
##  1 Tiliviche1B     2.03
##  2 Tiliviche1B     2.28
##  3 Tiliviche1B     7.8 
##  4 Tiliviche1B     2.18
##  5 Tiliviche1B     1.9 
##  6 Tiliviche1B     1.82
##  7 Tiliviche1B     2.09
##  8 Tiliviche1B     2.12
##  9 Tiliviche1B     2.15
## 10 Tiliviche1B     2.45
## # ℹ 30 more rows

triangulo <- read_excel("~/Desktop/work/0_Cuantitativa_2026/ANT305Q-2026/Clases/Clase9/Triangulo.xlsx")
triangulo

## # A tibble: 39 × 2
##    Sexo    Area
##    <chr>  <dbl>
##  1 Hombre  494.
##  2 Hombre  749.
##  3 Hombre  622.
##  4 Hombre  791.
##  5 Hombre  712.
##  6 Hombre  642.
##  7 Hombre  663.
##  8 Hombre  675.
##  9 Hombre  862.
## 10 Hombre  546.
## # ℹ 29 more rows
…
