Clase 7. Prueba t de Student.
…
5. Ejercicio 3: Largo de fémur en Quillagua.

Realice un test t para comparar las medias de largo de fémur (mm) de
los sectores Alto y Bajo del Cementerio Oriente de Quillagua. Se asume
que las dos muestras fueron tomadas de poblaciones que tienen las mismas
medias para largo de fémur, por lo tanto no existen diferencias
estadísticamente significativas entre ellas.

5.1. Importar y explorar los datos.

femur <- read_excel("~/Desktop/work/0_Cuantitativa_2026/ANT305Q-2026/Clases/Clase7/Largo_femur_adultos.xlsx")
femur

## # A tibble: 91 × 2
##    Sector Largo
##    <chr>  <dbl>
##  1 alto     444
##  2 alto     440
##  3 alto     435
##  4 alto     425
##  5 alto     420
##  6 alto     417
##  7 alto     416
##  8 alto     415
##  9 alto     414
## 10 alto     413
## # ℹ 81 more rows
…
